Coffee ratings - a story using data
…
Countries with the top average rating

## # A tibble: 36 x 2
##    country_of_origin points
##    <chr>              <dbl>
##  1 Papua New Guinea    85.8
##  2 Ethiopia            85.5
##  3 Japan               84.7
##  4 USA                 84.4
##  5 Kenya               84.3
##  6 Panama              83.7
##  7 Uganda              83.5
##  8 Colombia            83.1
##  9 El Salvador         83.1
## 10 China               82.9
## #  with 26 more rows
…
